// Level 3 of the default set

[Tiles]
################################
####...####................#####
####.*.####................#####
####...####...#########....#####
####...####...^^^^...##....#####
####...####...^^^^.@.#6....#####
##.......##...^^^^...##....#####
##.......##...^^^^...##....#####
##..222..##...^^^^...##....4####
##.......#6...^^^^...##....#####
##.......#6...^^^^...##....#22##
##^^...^^#6...^^^^...##........#
##^^...^^#6...^^^^...##........#
##.......##...^^^^...##........#
##.......##..........######....#
##^^...^^##..........######....#
##^^...^^##################....#
##.......###2##22##2#######....#
##.........^^^^^^^^^^..........#
##.............................#
##.........^^^^^^^^^^..........#
################################
[/Tiles]

[Info]
type = maze
floor = 3
time = 60
music = none
[/Info]

[Turrets]
4,8:0:15,15,150
5,8:0:15,15,150
6,8:0:15,15,150
15,17:30:60
16,17:30:60
[/Turrets]
